12,10
*,C41,C29,C3,*,C23,C21,*,C9,C11
F19,?,?,?,C3F9,?,?,F3,?,?
F21,?,?,?,?,?,?,C21F11,?,?
F12,?,?,C4F28,?,?,?,?,?,*
F7,?,?,?,*,C7F15,?,?,C41,C29
F6,?,?,?,C22F16,?,?,?,?,?
F9,?,?,C13F11,?,?,?,C7F3,?,?
F34,?,?,?,?,?,F23,?,?,?
*,*,C6F4,?,?,C13,C14F7,?,?,?
*,C14F15,?,?,?,?,?,C8F13,?,?
F11,?,?,F38,?,?,?,?,?,?
F6,?,?,F8,?,?,F10,?,?,?
1
82
