18,18
*,C4,C3,*,*,*,*,*,*,*,C3,C5,C10,*,*,*,*,*
F4,?,?,C10,C9,C8,C10,*,*,C8F6,?,?,?,*,*,C12,C28,*
F21,?,?,?,?,?,?,C8,C8F10,?,?,?,?,C5,C10F3,?,?,*
*,*,C15F28,?,?,?,?,?,?,?,*,C3F15,?,?,?,?,?,C14
*,F6,?,?,?,*,C3F3,?,?,*,C3F28,?,?,?,?,?,?,?
*,C6F6,?,?,*,C3F3,?,?,*,C6F3,?,?,*,C6F10,?,?,?,?
F4,?,?,*,C6F3,?,?,*,C6F3,?,?,*,C6F3,?,?,F3,?,?
F6,?,?,C6F3,?,?,*,C6F3,?,?,*,C6F3,?,?,*,C6F5,?,?
F11,?,?,?,?,*,C6F6,?,?,?,C6F6,?,?,?,C6F8,?,?,*
*,*,C28F5,?,?,C6F6,?,?,?,C6F6,?,?,?,F3,?,?,C15,C7
*,C10F4,?,?,F6,?,?,?,F6,?,?,?,*,C3F10,?,?,?,?
F3,?,?,*,C10F5,?,?,*,C3F5,?,?,*,C3F4,?,?,F3,?,?
F5,?,?,C10F4,?,?,*,C8F4,?,?,*,C6F3,?,?,*,C14F5,?,?
F10,?,?,?,?,C3,C14F3,?,?,*,C3F3,?,?,*,C10F5,?,?,*
F28,?,?,?,?,?,?,?,*,C5F3,?,?,C5,C7F8,?,?,?,*
*,F16,?,?,?,?,?,C3,C4F28,?,?,?,?,?,?,?,C6,C8
*,F11,?,?,*,F12,?,?,?,?,*,F21,?,?,?,?,?,?
*,*,*,*,*,F6,?,?,?,*,*,*,*,*,*,F3,?,?
3
91
