digraph "Representación gráfica de la clase"
{
 // LATEX_PDF_SIZE
  edge [fontname="FreeSans",fontsize="10",labelfontname="FreeSans",labelfontsize="10"];
  node [fontname="FreeSans",fontsize="10",shape=record];
  rankdir="LR";
  Node18 [label="JFrame",height=0.2,width=0.4,color="grey75", fillcolor="white", style="filled",tooltip=" "];
  Node18 -> Node0 [dir="back",color="midnightblue",fontsize="10",style="solid",fontname="FreeSans"];
  Node0 [label="Presentacion.changePasswordView",height=0.2,width=0.4,color="black", fillcolor="white", style="filled",URL="$class_presentacion_1_1change_password_view.html",tooltip="Vista que nos sirve para acceder a la funcionalidad de cambiar la contraseña del usuario...."];
  Node18 -> Node20 [dir="back",color="midnightblue",fontsize="10",style="solid",fontname="FreeSans"];
  Node20 [label="Presentacion.completedKakuroView",height=0.2,width=0.4,color="black", fillcolor="white", style="filled",URL="$class_presentacion_1_1completed_kakuro_view.html",tooltip="Vista que muestra el kakuro una vez completado, es decir una vez se han rellenado todas las casillas ..."];
  Node18 -> Node21 [dir="back",color="midnightblue",fontsize="10",style="solid",fontname="FreeSans"];
  Node21 [label="Presentacion.deleteUserView",height=0.2,width=0.4,color="black", fillcolor="white", style="filled",URL="$class_presentacion_1_1delete_user_view.html",tooltip="Vista que nos sirve para acceder a la funcionalidad de eliminar un usuario. Para ello el usuario tend..."];
  Node18 -> Node22 [dir="back",color="midnightblue",fontsize="10",style="solid",fontname="FreeSans"];
  Node22 [label="Presentacion.editUserView",height=0.2,width=0.4,color="black", fillcolor="white", style="filled",URL="$class_presentacion_1_1edit_user_view.html",tooltip="Vista intermedia que nos sirve para acceder a las funcionalidade que implicar editar un perfil,..."];
  Node18 -> Node23 [dir="back",color="midnightblue",fontsize="10",style="solid",fontname="FreeSans"];
  Node23 [label="Presentacion.generatedKakuroView",height=0.2,width=0.4,color="black", fillcolor="white", style="filled",URL="$class_presentacion_1_1generated_kakuro_view.html",tooltip="Vista intermedia que nos sirve para acceder a las distintas funcionalidades que podemos experimentar ..."];
  Node18 -> Node24 [dir="back",color="midnightblue",fontsize="10",style="solid",fontname="FreeSans"];
  Node24 [label="Presentacion.generateOptionsView",height=0.2,width=0.4,color="black", fillcolor="white", style="filled",URL="$class_presentacion_1_1generate_options_view.html",tooltip="Vista intermedia que nos permite ajustar los parámetros a la hora de generar un kakuro...."];
  Node18 -> Node25 [dir="back",color="midnightblue",fontsize="10",style="solid",fontname="FreeSans"];
  Node25 [label="Presentacion.generateOrLoadView",height=0.2,width=0.4,color="black", fillcolor="white", style="filled",URL="$class_presentacion_1_1generate_or_load_view.html",tooltip="Vista que nos sirve para acceder a dos funcionalidades. Se encarga de mostrarnos dos botones que pode..."];
  Node18 -> Node26 [dir="back",color="midnightblue",fontsize="10",style="solid",fontname="FreeSans"];
  Node26 [label="Presentacion.hintView",height=0.2,width=0.4,color="black", fillcolor="white", style="filled",URL="$class_presentacion_1_1hint_view.html",tooltip="Vista que nos sirve para pedir una pista. Se nos pausa el timer de la partida y se nos abre una nueva..."];
  Node18 -> Node27 [dir="back",color="midnightblue",fontsize="10",style="solid",fontname="FreeSans"];
  Node27 [label="Presentacion.infoKakuroView",height=0.2,width=0.4,color="black", fillcolor="white", style="filled",URL="$class_presentacion_1_1info_kakuro_view.html",tooltip="Vista que nos sirve para ver la información de un Kakuro. Nos muestra el Kakuro representado gráficam..."];
  Node18 -> Node28 [dir="back",color="midnightblue",fontsize="10",style="solid",fontname="FreeSans"];
  Node28 [label="Presentacion.insertManualView",height=0.2,width=0.4,color="black", fillcolor="white", style="filled",URL="$class_presentacion_1_1insert_manual_view.html",tooltip="Vista que nos sirve para crear un Kakuro a partir introducir su representación en formato oficial...."];
  Node18 -> Node29 [dir="back",color="midnightblue",fontsize="10",style="solid",fontname="FreeSans"];
  Node29 [label="Presentacion.loginView",height=0.2,width=0.4,color="black", fillcolor="white", style="filled",URL="$class_presentacion_1_1login_view.html",tooltip="Vista que nos sirve para acceder a una cuenta. Contiene dos campos de texto para usuario y contraseña..."];
  Node18 -> Node30 [dir="back",color="midnightblue",fontsize="10",style="solid",fontname="FreeSans"];
  Node30 [label="Presentacion.newOrLoadView",height=0.2,width=0.4,color="black", fillcolor="white", style="filled",URL="$class_presentacion_1_1new_or_load_view.html",tooltip="Vista que nos sirve como menú intermedio a la hora de escoger qué Kakuro jugar. Hay dos botones que n..."];
  Node18 -> Node31 [dir="back",color="midnightblue",fontsize="10",style="solid",fontname="FreeSans"];
  Node31 [label="Presentacion.pauseView",height=0.2,width=0.4,color="black", fillcolor="white", style="filled",URL="$class_presentacion_1_1pause_view.html",tooltip="Vista que se nos muestra al pausar una partida. El timer de la partida deja de incrementar y no se no..."];
  Node18 -> Node32 [dir="back",color="midnightblue",fontsize="10",style="solid",fontname="FreeSans"];
  Node32 [label="Presentacion.playingView",height=0.2,width=0.4,color="black", fillcolor="white", style="filled",URL="$class_presentacion_1_1playing_view.html",tooltip="Vista que se nos muestra cuando estamos jugando una partida. Podemos añadir valores a las casillas bl..."];
  Node18 -> Node33 [dir="back",color="midnightblue",fontsize="10",style="solid",fontname="FreeSans"];
  Node33 [label="Presentacion.playRepoChoosed\lOptionsView",height=0.2,width=0.4,color="black", fillcolor="white", style="filled",URL="$class_presentacion_1_1play_repo_choosed_options_view.html",tooltip="Vista que se nos muestra al escoger un kakuro. Podemos decidir si jugar el Kakuro escogido mostrado o..."];
  Node18 -> Node34 [dir="back",color="midnightblue",fontsize="10",style="solid",fontname="FreeSans"];
  Node34 [label="Presentacion.rankingView",height=0.2,width=0.4,color="black", fillcolor="white", style="filled",URL="$class_presentacion_1_1ranking_view.html",tooltip="Vista que se nos muestra el ranking. Podemos ver, ordenados de mayor a menor, los nombres de los juga..."];
  Node18 -> Node35 [dir="back",color="midnightblue",fontsize="10",style="solid",fontname="FreeSans"];
  Node35 [label="Presentacion.repoFilesView",height=0.2,width=0.4,color="black", fillcolor="white", style="filled",URL="$class_presentacion_1_1repo_files_view.html",tooltip="Vista que se nos muestra el repositorio de kakuros. Podemos ver todos los ficheros de distintas carpe..."];
  Node18 -> Node36 [dir="back",color="midnightblue",fontsize="10",style="solid",fontname="FreeSans"];
  Node36 [label="Presentacion.repoManualOr\lGenerateView",height=0.2,width=0.4,color="black", fillcolor="white", style="filled",URL="$class_presentacion_1_1repo_manual_or_generate_view.html",tooltip="Vista que se nos muestra diferentes opciones para elegir el kakuro. Podemos elegir,..."];
  Node18 -> Node37 [dir="back",color="midnightblue",fontsize="10",style="solid",fontname="FreeSans"];
  Node37 [label="Presentacion.repoPersonalView",height=0.2,width=0.4,color="black", fillcolor="white", style="filled",URL="$class_presentacion_1_1repo_personal_view.html",tooltip="Vista que se nos muestra el si queremos ver el repositorio personal de empezadas o acabadas."];
  Node18 -> Node38 [dir="back",color="midnightblue",fontsize="10",style="solid",fontname="FreeSans"];
  Node38 [label="Presentacion.signUpView",height=0.2,width=0.4,color="black", fillcolor="white", style="filled",URL="$class_presentacion_1_1sign_up_view.html",tooltip="Vista dedicada a hacer signUp de un nuevo usuario."];
  Node18 -> Node39 [dir="back",color="midnightblue",fontsize="10",style="solid",fontname="FreeSans"];
  Node39 [label="Presentacion.solveFinishedView",height=0.2,width=0.4,color="black", fillcolor="white", style="filled",URL="$class_presentacion_1_1solve_finished_view.html",tooltip="Vista que nos muestra los resultados de Solve."];
  Node18 -> Node40 [dir="back",color="midnightblue",fontsize="10",style="solid",fontname="FreeSans"];
  Node40 [label="Presentacion.startingView",height=0.2,width=0.4,color="black", fillcolor="white", style="filled",URL="$class_presentacion_1_1starting_view.html",tooltip="Primera vista que se muestra al iniciar nuestro programa."];
  Node18 -> Node41 [dir="back",color="midnightblue",fontsize="10",style="solid",fontname="FreeSans"];
  Node41 [label="Presentacion.userMenuView",height=0.2,width=0.4,color="black", fillcolor="white", style="filled",URL="$class_presentacion_1_1user_menu_view.html",tooltip="Vista que nos muestra las opciones disponibles una vez hemos iniciado sesión, o hemos decidido entrar..."];
  Node18 -> Node42 [dir="back",color="midnightblue",fontsize="10",style="solid",fontname="FreeSans"];
  Node42 [label="Presentacion.verifyAndSolveView",height=0.2,width=0.4,color="black", fillcolor="white", style="filled",URL="$class_presentacion_1_1verify_and_solve_view.html",tooltip="Vista que nos sirve para dos funcionalidades. Se encarga de mostrarnos el kakuro elegido en resolver ..."];
  Node18 -> Node43 [dir="back",color="midnightblue",fontsize="10",style="solid",fontname="FreeSans"];
  Node43 [label="Presentacion.verifyFinishedView",height=0.2,width=0.4,color="black", fillcolor="white", style="filled",URL="$class_presentacion_1_1verify_finished_view.html",tooltip="Vista que nos muestra los resultados de la funcionalidad verificar."];
}
