digraph "Representación gráfica de la clase"
{
 // LATEX_PDF_SIZE
  edge [fontname="FreeSans",fontsize="10",labelfontname="FreeSans",labelfontsize="10"];
  node [fontname="FreeSans",fontsize="10",shape=record];
  rankdir="LR";
  Node0 [label="Dominio.Tests.Drivers.Menu\lDrivers",height=0.2,width=0.4,color="black", fillcolor="white", style="filled",URL="$class_dominio_1_1_tests_1_1_drivers_1_1_menu_drivers.html",tooltip="Nos sirve de menu para acceder a los posibles drivers de las diferentes funcionalidades."];
}
